{
    "type": "minecraft:crafting_shaped",
    "pattern": [
        "# ",
        " B"
    ],
    "key": {
        "#": {
            "item": "forge16tuts:lanzanite"
        },
        "B": {
            "item": "forge16tuts:rust"
        }
    },
    "result": {
        "item": "minecraft:iron_block",
        "count": 1
    }
}
