{
    "type": "minecraft:crafting_shaped",
    "pattern": [
        "###",
        " / ",
        " / "
    ],
    "key": {
        "#": {
            "item": "forge16tuts:lanzanite"
        },
        "/": {
            "item": "minecraft:stick"
        }
    },
    "result": {
        "item": "forge16tuts:lanzanite_pickaxe",
        "count": 1
    }
}