{
	"music.disc.bubblegloop_swamp": {
		"category": "music",
		"subtitle": "Swamp music",
		"sounds": [{
			"name": "forge16tuts:music/disc/bubblegloop_swamp",
			"stream": true
		}]
	},

	"item.bubblegloop_disc": {
		"category": "item",
		"subtitle": "Bubblegloop Swamp",
		"sounds": [
			{
				"name": "forge16tuts:item/bubblegloop_disc",
				"stream": true
			}
		]
	
	}
}